Launches
…
Bueno, parece que a EEUU se le acab la nafta despus de Mercury/Apollo. Me pregunto que habrn lanzando todo ese tiempo? Satlites? Vuelvo a ver que pasa con las privadas/startups porque SpaceX est de moda.

lanzamientos

## # A tibble: 5,726 x 11
##    tag       JD launch_date launch_year type  variant mission agency
##    <chr>  <dbl> <date>            <dbl> <chr> <chr>   <chr>   <chr> 
##  1 1967 2.44e6 1967-06-29         1967 Thor <NA>    Secor  US    
##  2 1967 2.44e6 1967-08-23         1967 Thor <NA>    DAPP 3 US    
##  3 1967 2.44e6 1967-10-11         1967 Thor <NA>    DAPP 4 US    
##  4 1968 2.44e6 1968-05-23         1968 Thor <NA>    DAPP 5 US    
##  5 1968 2.44e6 1968-10-23         1968 Thor <NA>    DAPP 6 US    
##  6 1969 2.44e6 1969-07-23         1969 Thor <NA>    DAPP 7 US    
##  7 1970 2.44e6 1970-02-11         1970 Thor <NA>    DAPP B US    
##  8 1970 2.44e6 1970-09-03         1970 Thor <NA>    DAPP B US    
##  9 1971 2.44e6 1971-02-17         1971 Thor <NA>    DAPP B US    
## 10 1971 2.44e6 1971-06-08         1971 Thor <NA>    P70-1   US    
## #  with 5,716 more rows, and 3 more variables: state_code <chr>,
## #   category <chr>, agency_type <chr>
